Importing and Cleaning Data
…
Now let’s take a quick look at a few rows to make sure the data makes sense (months have lower counts than years, precincts have lower counts than boros).

print(p_monthly_incidents, n = 5)

## # A tibble: 7,251 × 4
##   BORO  PRECINCT DATE       INCIDENTS
##   <chr>    <int> <date>         <int>
## 1 BRONX       40 2006-01-01         3
## 2 BRONX       40 2006-02-01         3
## 3 BRONX       40 2006-03-01         6
## 4 BRONX       40 2006-04-01         4
## 5 BRONX       40 2006-05-01         2
## # … with 7,246 more rows

print(p_yearly_incidents, n = 5)

## # A tibble: 1,053 × 4
##   BORO  PRECINCT  YEAR INCIDENTS
##   <chr>    <int> <dbl>     <int>
## 1 BRONX       40  2006        49
## 2 BRONX       40  2007        56
## 3 BRONX       40  2008        54
## 4 BRONX       40  2009        71
## 5 BRONX       40  2010        67
## # … with 1,048 more rows

print(b_monthly_incidents, n = 5)

## # A tibble: 894 × 3
##   BORO  DATE       INCIDENTS
##   <chr> <date>         <int>
## 1 BRONX 2006-01-01        40
## 2 BRONX 2006-02-01        22
## 3 BRONX 2006-03-01        27
## 4 BRONX 2006-04-01        46
## 5 BRONX 2006-05-01        46
## # … with 889 more rows

print(b_yearly_incidents, n = 5)

## # A tibble: 75 × 3
##   BORO   YEAR INCIDENTS
##   <chr> <dbl>     <int>
## 1 BRONX  2006       568
## 2 BRONX  2007       533
## 3 BRONX  2008       520
## 4 BRONX  2009       529
## 5 BRONX  2010       525
## # … with 70 more rows
…
